go 1.16

module github.com/containers/storage

require (
	github.com/BurntSushi/toml v1.2.0
	github.com/Microsoft/go-winio v0.5.2
	github.com/Microsoft/hcsshim v0.9.4
	github.com/containerd/stargz-snapshotter/estargz v0.12.0
	github.com/cyphar/filepath-securejoin v0.2.3
	github.com/docker/go-units v0.5.0
	github.com/google/go-intervals v0.0.2
	github.com/hashicorp/go-multierror v1.1.1
	github.com/json-iterator/go v1.1.12
	github.com/klauspost/compress v1.15.9
	github.com/klauspost/pgzip v1.2.5
	github.com/mattn/go-shellwords v1.0.12
	github.com/mistifyio/go-zfs/v3 v3.0.0
	github.com/moby/sys/mountinfo v0.6.2
	github.com/opencontainers/go-digest v1.0.0
	github.com/opencontainers/runc v1.1.4
	github.com/opencontainers/runtime-spec v1.0.3-0.20210326190908-1c3f411f0417
	github.com/opencontainers/selinux v1.10.1
	github.com/sirupsen/logrus v1.9.0
	github.com/stretchr/testify v1.8.0
	github.com/syndtr/gocapability v0.0.0-20200815063812-42c35b437635
	github.com/tchap/go-patricia v2.3.0+incompatible
	github.com/ulikunitz/xz v0.5.10
	github.com/vbatts/tar-split v0.11.2
	golang.org/x/net v0.0.0-20210825183410-e898025ed96a
	golang.org/x/sys v0.0.0-20220715151400-c0bba94af5f8
	gotest.tools v2.2.0+incompatible
)
